{
  "10": {
    "_comment": [
      "Single Valve Decoder (D1): A single valve decoder that will populate the zones. One serial number will add one",
      "address to the configuration.",

      "Dual Valve Decoder (D2): A dual valve decoder that will populate the zones. One serial number will add two",
      "addresses to the configuration. ex: TSE0011 adds TSE0011 and TSE0012.",

      "Quad Valve Decoder (D4): A quad valve decoder that will populate the zones. One serial number will add four",
      "addresses to the configuration. ex: TSQ0011 adds TSQ0011, TSQ0012, TSQ0013, and TSQ0014.",

      "Twelve Valve Decoder (DD): A twelve valve decoder that will populate the zones. One serial number will add",
      "twelve addresses to the configuration.",

      "Single Valve Master Valve (MV_D1): A single valve decoder master valve.",

      "Dual Valve Master Valve (MV_D2): A dual valve decoder master valve.",

      "Zones (ZN): The list for ‘ZN’ range contains a start and stopping point for a range of values to allow for gaps.",
      "range example: [1, 10] - Says  address zones from 1 to 10 ",
      "range example: [1, 5, 10, 15] - Says to address zones 1-5 and 10-15",
      "   Range: [1, 100]",

      "Master Valve (MV): Any serial numbers in here must also be either in MV_D1 or MV_D2.",
      "   Range: [1, 2, 3, 4, 5, 6, 7, 8]",

      "Moisture Sensor (MS): Measures the moisture in the soil.",
      "   Range: [1, 2, 3, 4, 5, 6, 7, 8, 9, 10...40]",

      "Temperature Sensor (TS): Reads the temperature in degrees fahrenheit.",
      "   Range: [1, 2, 3, 4, 5, 6, 7, 8, 9, 10]",

      "Event Switch (SW): Allows for conditional operations when it is turned on or off.",
      "   Range: [1, 2, 3, 4, 5, 6, 7, 8, 9, 10]",

      "Flow Meter (FM): Measures the flow going into the flow meter in gallons per minute.",
      "   Range: [1, 2, 3, 4, 5, 6, 7, 8]"
    ],
    "D1": [
    ],
    "MV_D1": [
      "TSD0001",
      "TMV0003",
      "TMV0004"
    ],
    "D2": [
    ],
    "MV_D2": [
    ],
    "D4": [
      "TSQ0071",
      "TSQ0081"
    ],
    "DD": [
    ],
    "ZN": {
      "_comment":[
        "The list for ‘ZN’ range contains a start and stopping point for a range of values to allow for gaps ",
        "range example: [1, 10] - Says  address zones from 1 to 10 ",
        "range example: [1, 5, 10, 15] - Says to address zones 1-5 and 10-15"
      ],
      "range": [1, 2, 49, 50, 97, 100]
    },
    "MV": {
      "serial": [
        "TMV0003",
        "TSD0001",
        "TMV0004"
      ],
      "range": [1,2,7]
    },
    "MS": {
      "serial": [
        "SB07258",
        "SB05308"
      ],
      "range": [1, 2]
    },
    "TS": {
      "serial": [
        "TAT0001"
      ],
      "range": [1]
    },
    "SW": {
      "serial": [
        "TPD0001"
      ],
      "range": [1]
    },
    "FM": {
      "serial": [
        "TWF0003",
        "TWF0004"
      ],
      "range": [1, 2]
    }
  },

  "32": {
    "_comment": [
      "Single Valve Decoder (D1): A single valve decoder that will populate the zones. One serial number will add one",
      "address to the configuration.",

      "Dual Valve Decoder (D2): A dual valve decoder that will populate the zones. One serial number will add two",
      "addresses to the configuration. ex: TSE0011 adds TSE0011 and TSE0012.",

      "Quad Valve Decoder (D4): A quad valve decoder that will populate the zones. One serial number will add four",
      "addresses to the configuration. ex: TSQ0011 adds TSQ0011, TSQ0012, TSQ0013, and TSQ0014.",

      "Twelve Valve Decoder (DD): A twelve valve decoder that will populate the zones. One serial number will add",
      "twelve addresses to the configuration.",

      "Single Valve Master Valve (MV_D1): A single valve decoder master valve.",

      "Dual Valve Master Valve (MV_D2): A dual valve decoder master valve.",

      "Zones (ZN): The list for ‘ZN’ range contains a start and stopping point for a range of values to allow for gaps.",
      "range example: [1, 10] - Says  address zones from 1 to 10 ",
      "range example: [1, 5, 10, 15] - Says to address zones 1-5 and 10-15",
      "   Range: [1, 200]",

      "Master Valve (MV): Any serial numbers in here must also be either in MV_D1 or MV_D2.",
      "   Range: [1, 2, 3, 4, 5, 6, 7, 8]",

      "Moisture Sensor (MS): Measures the moisture in the soil.",
      "   Range: [1, 2, 3, 4, 5, 6, 7, 8, 9, 10...25]",

      "Temperature Sensor (TS): Reads the temperature in degrees fahrenheit.",
      "   Range: [1, 2, 3, 4, 5, 6, 7, 8]",

      "Event Switch (SW): Allows for conditional operations when it is turned on or off.",
      "   Range: [1, 2, 3, 4, 5, 6, 7, 8]",

      "Flow Meter (FM): Measures the flow going into the flow meter in gallons per minute.",
      "   Range: [1, 2, 3, 4, 5, 6, 7, 8]"
    ],
    "D1": [
        "TSD0001",
        "TSD0002",
        "TSD0003",
        "TSD0004",
        "TSD0005",
        "TSD0006",
        "TSD0007",
        "TSD0008",
        "TSD0009",
        "TSD0010"

    ],
    "MV_D1": [
        "TMV0001",
        "TMV0002",
        "TMV0003",
        "TMV0004",
        "TMV0005",
        "TMV0006",
        "TMV0007",
        "TMV0008"
    ],
    "PM_D1": [
        "PMV0001",
        "PMV0002",
        "PMV0003",
        "PMV0004",
        "PMV0005",
        "PMV0006",
        "PMV0007",
        "PMV0008"
    ],

    "D2": [
        "TSE0011",
        "TSE0021",
        "TSE0031",
        "TSE0041",
        "TSE0051",
        "TSE0061",
        "TSE0071",
        "TSE0081",
        "TSE0091"
    ],
    "MV_D2": [
    ],
    "D4": [
      "TSQ0011",
      "TSQ0021",
      "TSQ0031",
      "TSQ0041",
      "TSQ0051",
      "TSQ0061",
      "TSQ0071"
    ],
    "DD": [
      "TVA0001",
      "TVB0001",
      "TVA4001",
      "TVB4001",
      "TVA5001",
      "TVB5001",
      "TVA6001",
      "TVB6001",
      "TVA7001",
      "TVB7001",
      "TVA8001",
      "TVB8001"
    ],
    "ZN": {
      "_comment":[
        "The list for ‘ZN’ range contains a start and stopping point for a range of values to allow for gaps ",
        "range example: [1, 10] - Says  address zones from 1 to 10 ",
        "range example: [1, 5, 10, 15] - Says to address zones 1-5 and 10-15"
        ],
      "range": [1, 200]
    },
    "MV": {
      "serial": [
        "TMV0001",
        "TMV0002",
        "TMV0003",
        "TMV0004",
        "TMV0005",
        "TMV0007",
        "TMV0008"
      ],
      "range": [1, 2, 3, 4, 5, 7, 8]
    },
    "PM": {
      "serial": [
        "PMV0001",
        "PMV0002",
        "PMV0003",
        "PMV0004",
        "PMV0005",
        "PMV0007",
        "PMV0008"
      ],
      "range": [1, 2, 3, 4, 5, 7, 8]
    },
    "MS": {
      "serial": [
        "SB05301",
        "SB05302",
        "SB05303",
        "SB05304",
        "SB05305",
        "SB05307",
        "SB05308"
      ],
      "range": [1, 2, 3, 4, 5, 7, 8]
    },
    "TS": {
      "serial": [
         "TAT5301",
         "TAT5302",
         "TAT5303",
         "TAT5304",
         "TAT5305",
         "TAT5307",
         "TAT5308"
      ],
      "range": [1, 2, 3, 4, 5, 7, 8]
    },
    "SW": {
        "serial": [
        "TPD1001",
        "TPD1002",
        "TPD1003",
        "TPD1004",
        "TPD1005",
        "TPD1007",
        "TPD1008"
        ],
      "range": [1, 2, 3, 4, 5, 7, 8]
    },
    "FM": {
        "serial": [
          "TWF0001",
          "TWF0002",
          "TWF0003",
          "TWF0004",
          "TWF0005",
          "TWF0007",
          "TWF0008"
        ],
      "range": [1, 2, 3, 4, 5, 7, 8]
    },
    "PS": {
        "serial": [
          "TPS0001",
          "TPS0002",
          "TPS0003",
          "TPS0004",
          "TPS0005",
          "TPS0007",
          "TPS0008"
        ],
      "range": [1, 2, 3, 4, 5, 7, 8]
    }
  }
}
