{
  "32": {
    "_comment": [
      "Single Valve Decoder (D1): A single valve decoder that will populate the zones. One serial number will add one",
      "address to the configuration.",

      "Dual Valve Decoder (D2): A dual valve decoder that will populate the zones. One serial number will add two",
      "addresses to the configuration. ex: TSE0011 adds TSE0011 and TSE0012.",

      "Quad Valve Decoder (D4): A quad valve decoder that will populate the zones. One serial number will add four",
      "addresses to the configuration. ex: TSQ0011 adds TSQ0011, TSQ0012, TSQ0013, and TSQ0014.",

      "Twelve Valve Decoder (DD): A twelve valve decoder that will populate the zones. One serial number will add",
      "twelve addresses to the configuration.",

      "Single Valve Master Valve (MV_D1): A single valve decoder master valve.",

      "Dual Valve Master Valve (MV_D2): A dual valve decoder master valve.",

      "Zones (ZN): The list for ‘ZN’ range contains a start and stopping point for a range of values to allow for gaps.",
      "range example: [1, 10] - Says  address zones from 1 to 10 ",
      "range example: [1, 5, 10, 15] - Says to address zones 1-5 and 10-15",
      "   Range: [1, 200]",

      "Master Valve (MV): Any serial numbers in here must also be either in MV_D1 or MV_D2.",
      "   Range: [1, 2, 3, 4, 5, 6, 7, 8]",

      "Moisture Sensor (MS): Measures the moisture in the soil.",
      "   Range: [1, 2, 3, 4, 5, 6, 7, 8, 9, 10...25]",

      "Temperature Sensor (TS): Reads the temperature in degrees fahrenheit.",
      "   Range: [1, 2, 3, 4, 5, 6, 7, 8]",

      "Event Switch (SW): Allows for conditional operations when it is turned on or off.",
      "   Range: [1, 2, 3, 4, 5, 6, 7, 8]",

      "Flow Meter (FM): Measures the flow going into the flow meter in gallons per minute.",
      "   Range: [1, 2, 3, 4, 5, 6, 7, 8]"
    ],
    "D1": [
    ],
    "MV_D1": [
      "TMV0001"
    ],
    "D2": [
      "TSE0001",
      "TSE0011",
      "TSE0021",
      "TSE0031"
    ],
    "MV_D2": [
    ],
    "D4": [
      "TSQ0011",
      "TSQ0021",
      "TSQ0031",
      "TSQ0041"
    ],
    "DD": [
    ],
    "ZN": {
      "range": [1, 8, 81, 96]
    },
    "MV": {
      "serial": [
        "TMV0001"
      ],
      "range": [1]
    },
    "MS": {
      "serial": [
      ],
      "range": []
    },
    "TS": {
      "serial": [
      ],
      "range": []
    },
    "SW": {
      "serial": [
      ],
      "range": []
    },
    "FM": {
      "serial": [
        "TWF0001"
      ],
      "range": [
        1
      ]
    },
    "PS": {
      "serial": [
        "PSF0001",
        "PSF0002",
        "PSF0003",
        "PSF0004",
        "PSF0005"
      ],
      "range": [
        1, 2, 3, 4, 5
      ]
    }
  }
}
