{
  "10": {
    "_comment": [
      "Single Valve Decoder (D1): A single valve decoder that will populate the zones. One serial number will add one",
      "address to the configuration.",

      "Dual Valve Decoder (D2): A dual valve decoder that will populate the zones. One serial number will add two",
      "addresses to the configuration. ex: TSE0011 adds TSE0011 and TSE0012.",

      "Quad Valve Decoder (D4): A quad valve decoder that will populate the zones. One serial number will add four",
      "addresses to the configuration. ex: TSQ0011 adds TSQ0011, TSQ0012, TSQ0013, and TSQ0014.",

      "Twelve Valve Decoder (DD): A twelve valve decoder that will populate the zones. One serial number will add",
      "twelve addresses to the configuration.",

      "Single Valve Master Valve (MV_D1): A single valve decoder master valve.",

      "Dual Valve Master Valve (MV_D2): A dual valve decoder master valve.",

      "Zones (ZN): The list for ‘ZN’ range contains a start and stopping point for a range of values to allow for gaps.",
      "range example: [1, 10] - Says  address zones from 1 to 10 ",
      "range example: [1, 5, 10, 15] - Says to address zones 1-5 and 10-15",
      "   Range: [1, 100]",

      "Master Valve (MV): Any serial numbers in here must also be either in MV_D1 or MV_D2.",
      "   Range: [1, 2, 3, 4, 5, 6, 7, 8]",

      "Moisture Sensor (MS): Measures the moisture in the soil.",
      "   Range: [1, 2, 3, 4, 5, 6, 7, 8, 9, 10...40]",

      "Temperature Sensor (TS): Reads the temperature in degrees fahrenheit.",
      "   Range: [1, 2, 3, 4, 5, 6, 7, 8, 9, 10]",

      "Event Switch (SW): Allows for conditional operations when it is turned on or off.",
      "   Range: [1, 2, 3, 4, 5, 6, 7, 8, 9, 10]",

      "Flow Meter (FM): Measures the flow going into the flow meter in gallons per minute.",
      "   Range: [1, 2, 3, 4, 5, 6, 7, 8]"
    ],
    "D1": [
        "TSD0001",
        "TSD0002",
        "TSD0003",
        "TSD0004",
        "TSD0005",
        "TSD0006",
        "TSD0007",
        "TSD0008",
        "TSD0009",
        "TSD0010",
        "TSD0011",
        "TSD0012",
        "TSD0013",
        "TSD0014",
        "TSD0015",
        "TSD0016"
    ],
    "MV_D1": [
        "TPR0011",
        "TRR0012",
        "TMV0003",
        "TMV0004",
        "TMV0005",
        "TMV0006"
    ],
    "D2": [
    ],
    "MV_D2": [
    ],
    "D4": [
      "TSQ0071",
      "TSQ0081"
    ],
    "DD": [
    ],
    "ZN": {
      "_comment":[
        "The list for ‘ZN’ range contains a start and stopping point for a range of values to allow for gaps ",
        "range example: [1, 10] - Says  address zones from 1 to 10 ",
        "range example: [1, 5, 10, 15] - Says to address zones 1-5 and 10-15"
      ],
      "range": [1, 24]
    },
    "MV": {
      "serial": [
        "TPR0011",
        "TRR0012",
        "TMV0003",
        "TMV0004",
        "TMV0005",
        "TMV0006"
      ],
      "range": [1,2,3,4,5,6]
    },
    "MS": {
      "serial": [
        "SB05308",
        "SB06300",
        "SB07258"
      ],
      "range": [ 1, 2, 3]
    },
    "TS": {
      "serial": [
        "TAT0001",
        "TAT0002",
        "TAT0003"
      ],
      "range": [ 1, 2, 3 ]
    },
    "SW": {
      "serial": [
        "TPD0001",
        "TPD0002",
        "TPD0003"
      ],
      "range": [ 1, 2 ,3]
    },
    "FM": {
      "serial": [
        "TWF0001",
        "TWF0002",
        "TWF0003"
      ],
      "range": [ 1,2,3 ]
    }
  },

  "_comment": [
                "address ranges for all devices but ZN",
                "“range” - contains a list of addresses to assign to each device.",
                "Should have 1 value in the list for every serial number associated with the device.",
                "So if there are three Moisture Sensor (‘MS’)  serial numbers,",
                "The “range” attribute would contain a list of three integers,in the order you want them.",
                "i.e: “range”: [1, 2, 3]"
              ],


  "32": {
    "_comment": [
      "Single Valve Decoder (D1): A single valve decoder that will populate the zones. One serial number will add one",
      "address to the configuration.",

      "Dual Valve Decoder (D2): A dual valve decoder that will populate the zones. One serial number will add two",
      "addresses to the configuration. ex: TSE0011 adds TSE0011 and TSE0012.",

      "Quad Valve Decoder (D4): A quad valve decoder that will populate the zones. One serial number will add four",
      "addresses to the configuration. ex: TSQ0011 adds TSQ0011, TSQ0012, TSQ0013, and TSQ0014.",

      "Twelve Valve Decoder (DD): A twelve valve decoder that will populate the zones. One serial number will add",
      "twelve addresses to the configuration.",

      "Single Valve Master Valve (MV_D1): A single valve decoder master valve.",

      "Dual Valve Master Valve (MV_D2): A dual valve decoder master valve.",

      "Zones (ZN): The list for ‘ZN’ range contains a start and stopping point for a range of values to allow for gaps.",
      "range example: [1, 10] - Says  address zones from 1 to 10 ",
      "range example: [1, 5, 10, 15] - Says to address zones 1-5 and 10-15",
      "   Range: [1, 200]",

      "Master Valve (MV): Any serial numbers in here must also be either in MV_D1 or MV_D2.",
      "   Range: [1, 2, 3, 4, 5, 6, 7, 8]",

      "Moisture Sensor (MS): Measures the moisture in the soil.",
      "   Range: [1, 2, 3, 4, 5, 6, 7, 8, 9, 10...25]",

      "Temperature Sensor (TS): Reads the temperature in degrees fahrenheit.",
      "   Range: [1, 2, 3, 4, 5, 6, 7, 8]",

      "Event Switch (SW): Allows for conditional operations when it is turned on or off.",
      "   Range: [1, 2, 3, 4, 5, 6, 7, 8]",

      "Flow Meter (FM): Measures the flow going into the flow meter in gallons per minute.",
      "   Range: [1, 2, 3, 4, 5, 6, 7, 8]"
    ],
    "D1": [
        "TSD0001",
        "TSD0002",
        "TSD0003",
        "TSD0004",
        "TSD0005",
        "TSD0006",
        "TSD0007",
        "TSD0008",
        "TSD0009",
        "TSD0010",
        "TSD0011",
        "TSD0012",
        "TSD0013",
        "TSD0014",
        "TSD0015",
        "TSD0016"
    ],
    "MV_D1": [
        "TPR0011",
        "TPR0012",
        "TMV0001",
        "TMV0002",
        "TMV0003",
        "TMV0004",
        "TMV0005",
        "TMV0006"
    ],
    "PM_D1": [
      "TPR0013",
      "TPR0014",
      "TPR0015"
    ],
    "D2": [
    ],
    "MV_D2": [
    ],
    "PM_D2": [
    ],
    "D4": [
      "TSQ0071",
      "TSQ0081"
    ],
    "DD": [
    ],
    "-------------------------------------------------------------------------------------------------------------":"",
    "ZN": {
    "_comment":[
        "The list for ‘ZN’ range contains a start and stopping point for a range of values to allow for gaps ",
        "range example: [1, 10] - Says  address zones from 1 to 10 ",
        "range example: [1, 5, 10, 15] - Says to address zones 1-5 and 10-15"
        ],
      "range": [1, 24]
    },
    "MV": {
      "serial": [
        "TPR0011",
        "TPR0012",
        "TMV0001",
        "TMV0002",
        "TMV0003",
        "TMV0004",
        "TMV0005"
      ],
      "range": [1,2,3,4,5,6,7]
    },
    "MS": {
      "serial": [
        "SB05308",
        "SB06300",
        "SB07184",
        "SB07258"
      ],
      "range": [ 1, 2, 3, 4]
    },
    "PM": {
      "serial": [
        "TPR0013",
        "TPR0014",
        "TPR0015"
      ],
      "range": [1, 2, 3]
    },
    "TS": {
      "serial": [
        "SBT0001",
        "TAT0002",
        "TAT0003",
        "TAT0004"
      ],
      "range": [ 1, 2, 3, 4 ]
    },
    "SW": {
      "serial": [
        "TPD0001",
        "TPD0002",
        "TPD0003"
      ],
      "range": [ 1, 2, 3]
    },
    "FM": {
        "serial": [
          "TWF0001",
          "TWF0002",
          "TWF0003",
          "TWF0004",
          "TWF0005",
          "TWF0006",
          "TWF0007"
        ],
        "range": [ 1,2,3,4,5,6,7 ]
    },
    "PS": {
      "serial": [
        "PSF0001",
        "PSF0002",
        "PSF0003",
        "PSF0004",
        "PSF0005",
        "PSF0006",
        "PSF0007"
      ],
      "range": [ 1,2,3,4,5,6,7 ]
    }
  }
}
