{
  "_comment": [
    "user_name",
    "password",
    "url",
    "browserview",
    "webdriver.",
    "sitename",
    "comapanyname",
    "logging",
    "controllers:",
    " a None can be place in any field",
    "for multiple controller add more controllers",
    "type: Example: BaseStation1000,BaseStation3200,FlowStation,SubStation",
    "mac_address: Example: 0004A3765147",
    "port_address: socket:10002",
    "socket_port:  Example: //10.11.12.241:10001",
    "ip_address:  Example: 10.11.12.56",

    "firmware_version:  Example Latest, 12.34, or null or empty",
      "Latest: if firmware is latest than grab version out of local directory basesed on controller type",
      "if a firmware version is entered and doesnt match the controller we will attempt to update to specified firmware ",
      "null or empty str: no updates will occur and the firmware on controller will be used in use case",

    "browsers",
    "windows",
    "mac",
    "links",
    {
      "type": "SB",
      "serial_number": "SB10001",
      "firmware_version": "1.0.19",
      "mac_address": "D880391CF285",
      "port_address": "None",
      "ethernet_to_serial_connection": "socket://10.11.12.246:10001",
      "local_ip_address": "10.11.12.44"
    }
  ],
  "logging": "on",

  "client_login_info":
  {
    "username": "EldinAutoTests",
    "password": "EldinTest@10259",
    "site_name": "EldinAutoTests",
    "company": "Automated_Test_Systems"
  }
,
  "server_connections":
  {
    "server_url": "http://p2.basemanager.net/login.php?debug=true",
    "use_alternate_ip_address": "",
    "alternate_ip_address": "",
    "fixed_ip_address": "",
    "port_number": "443",
    "browser_view": "None",
    "web_driver": "None"
  }
,
  "controllers": [
    {
      "comment": "FlowStation on Eldin's Desk",
      "type": "FS",
      "serial_number": "FS00123",
      "firmware_version": "",
      "mac_address": "D880391A50CF",
      "port_address": "None",
      "ethernet_to_serial_connection": "socket://10.11.12.242:10001",
      "local_ip_address": "10.11.12.198"
    },
    {
      "comment": "3200 on Eldin's Desk",
      "type": "32",
      "serial_number": "3K10001",
      "firmware_version": "",
      "mac_address": "0008EE408115",
      "port_address": "None",
      "ethernet_to_serial_connection": "socket://10.11.12.242:10002",
      "local_ip_address": "10.11.12.39",
      "fw_database_id": "88"
    },
    {
      "comment": "3200 on Kent's Desk",
      "type": "32",
      "serial_number": "3K10002",
      "firmware_version": "",
      "mac_address": "0008EE406577",
      "port_address": "None",
      "ethernet_to_serial_connection": "socket://10.11.12.245:10001",
      "local_ip_address": "10.11.12.93",
      "fw_database_id": "88"
    }
  ],
  "controllers_not_in_use": [
    {
      "type": "FS",
      "serial_number": "FX00038",
      "firmware_version": "",
      "mac_address": "D88039CF285",
      "port_address": "None",
      "ethernet_to_serial_connection": "socket://10.11.12.44:21000",
      "local_ip_address": "10.11.12.44"
    },
    {
      "type": "SB",
      "serial_number": "SB10001",
      "firmware_version": "1.1.1",
      "mac_address": "D880391CF285",
      "port_address": "None",
      "ethernet_to_serial_connection": "socket://10.11.12.229:10001",
      "local_ip_address": "10.11.12.44"
    },
    {
      "comment": "3200 on Ben's Desk",
      "type": "32",
      "serial_number": "3K10002",
      "firmware_version": "",
      "mac_address": "0008EE406577",
      "port_address": "None",
      "ethernet_to_serial_connection": "socket://10.11.12.243:10002",
      "local_ip_address": "10.11.12.128",
      "fw_database_id": "88"
    }
  ],

  "browsers": ["chrome","firefox"],
  "windows":{
    "chrome": "C:\\Users\\BaselineSystemsInc\\AppData\\local\\Google\\Chrome\\chromedriver.exe",
    "ie": "C:\\Users\\Baseline\\Documents\\IEDriverServer.exe"
  },
  "mac": {
    "chrome": "C:\\Users\\Baseline\\My Documents\\chromedriver.exe",
    "ie": "C:\\Users\\Baseline\\Documents\\IEDriverServer.exe"
  },
  "linux": {
    "chrome": "/usr/bin/google-chrome",
    "ie": "C:\\Users\\Baseline\\Documents\\IEDriverServer.exe"
  }
}
