{
    "_comment": [
        "user_name",
        "password",
        "url",
        "browserview",
        "webdriver.",
        "sitename",
        "comapanyname",
        "logging",
        "controllers:",
        " a None can be place in any field",
        "for multiple controller add more controllers",
        "type: Example: BaseStation1000,BaseStation3200,FlowStation,SubStation",
        "mac_address: Example: 0004A3765147",
        "port_address: socket:10002",
        "socket_port:  Example: //10.11.12.241:10001",
        "ip_address:  Example: 10.11.12.56",
        "firmware_version:  Example: 1.19",
        "borwsers",
        "windows",
        "mac",
        "links"
    ],
    "logging": "on",

    "client_login_info":
    {
        "username": "kc",
        "password": "kc",
        "site_name": "EldinAutoTests",
        "company": "Automated_Test_Systems"
    }
,
    "server_connections":
    {
        "server_url": "http://p3.basemanager.net/login.php?debug=true",
        "fixed_ip_address": "0.0.0.0",
        "port_number": "443",
        "browser_view": "None",
        "web_driver": "None"
    }
,
    "controllers": [

        {
            "type": "FS",
            "serial_number": "FX00038",
            "firmware_version": "2.0.83",
            "mac_address": "D880391A50CF",
            "port_address": "None",
            "ethernet_to_serial_connection": "socket://10.11.12.36:21000",
            "local_ip_address": "10.11.12.36",
            "fw_database_id": "88"
        },

        {
            "type": "32",
            "serial_number": "3X10000",
            "firmware_version": "16.0.588",
            "mac_address": "000CC67FA801",
            "port_address": "None",
            "ethernet_to_serial_connection": "socket://10.11.12.243:10002",
            "local_ip_address": "10.11.12.243",
            "fw_database_id": "88"
        },

        {
            "type": "32",
            "serial_number": "3K00001",
            "firmware_version": "16.0.588",
            "mac_address": "0008EE408115",
            "port_address": "None",
            "ethernet_to_serial_connection": "socket://10.11.12.242:10002",
            "local_ip_address": "10.11.12.242",
            "fw_database_id": "88"
        }
    ],

    "browsers": ["chrome","firefox"],
    "windows":{
        "chrome": "C:\\Users\\BaselineSystemsInc\\AppData\\local\\Google\\Chrome\\chromedriver.exe",
        "ie": "C:\\Users\\Baseline\\Documents\\IEDriverServer.exe"
    },
    "mac": {
        "chrome": "C:\\Users\\Baseline\\My Documents\\chromedriver.exe",
        "ie": "C:\\Users\\Baseline\\Documents\\IEDriverServer.exe"
    },
    "linux": {
        "chrome": "/usr/bin/google-chrome",
        "ie": "C:\\Users\\Baseline\\Documents\\IEDriverServer.exe",
        "firefox": "/usr/bin/firefox"
    }
}
