{
  "10": {
    "_comment": [
      "Single Valve Decoder (D1): A single valve decoder that will populate the zones. One serial number will add one",
      "address to the configuration.",

      "Dual Valve Decoder (D2): A dual valve decoder that will populate the zones. One serial number will add two",
      "addresses to the configuration. ex: TSE0011 adds TSE0011 and TSE0012.",

      "Quad Valve Decoder (D4): A quad valve decoder that will populate the zones. One serial number will add four",
      "addresses to the configuration. ex: TSQ0011 adds TSQ0011, TSQ0012, TSQ0013, and TSQ0014.",

      "Twelve Valve Decoder (DD): A twelve valve decoder that will populate the zones. One serial number will add",
      "twelve addresses to the configuration.",

      "Single Valve Master Valve (MV_D1): A single valve decoder master valve.",

      "Dual Valve Master Valve (MV_D2): A dual valve decoder master valve.",

      "Zones (ZN): The list for ‘ZN’ range contains a start and stopping point for a range of values to allow for gaps.",
      "range example: [1, 10] - Says  address zones from 1 to 10 ",
      "range example: [1, 5, 10, 15] - Says to address zones 1-5 and 10-15",
      "   Range: [1, 100]",

      "Master Valve (MV): Any serial numbers in here must also be either in MV_D1 or MV_D2.",
      "   Range: [1, 2, 3, 4, 5, 6, 7, 8]",

      "Moisture Sensor (MS): Measures the moisture in the soil.",
      "   Range: [1, 2, 3, 4, 5, 6, 7, 8, 9, 10...40]",

      "Temperature Sensor (TS): Reads the temperature in degrees fahrenheit.",
      "   Range: [1, 2, 3, 4, 5, 6, 7, 8, 9, 10]",

      "Event Switch (SW): Allows for conditional operations when it is turned on or off.",
      "   Range: [1, 2, 3, 4, 5, 6, 7, 8, 9, 10]",

      "Flow Meter (FM): Measures the flow going into the flow meter in gallons per minute.",
      "   Range: [1, 2, 3, 4, 5, 6, 7, 8]"
    ],
    "D1": [
      "TSD0001",
      "TSD0002"
    ],
    "MV_D1": [
      "TMV0001"
    ],
    "D2": [
      "TSE0011"
    ],
    "MV_D2": [
    ],
    "D4": [
      "TSQ0051"
    ],
    "DD": [
    ],

    "ZN": {
      "_comment":[
        "The list for ‘ZN’ range contains a start and stopping point for a range of values to allow for gaps ",
        "range example: [1, 10] - Says  address zones from 1 to 10 ",
        "range example: [1, 5, 10, 15] - Says to address zones 1-5 and 10-15"
      ],
      "range": [1, 2, 49, 50, 96, 99]
    },
    "MV": {
      "serial": ["TMV0001"
      ],
      "range": [1]
    },
    "MS": {
      "serial": ["SB00000"
      ],
      "range": [1]
    },
    "TS": {
      "serial": ["TS00000"
      ],
      "range": [1]
    },
    "SW": {
      "serial": ["SW00000"
      ],
      "range": [1]
    },
    "FM": {
      "serial": ["FM00001"
      ],
      "range": [1]
    }
  },

  "_comment": [
                "address ranges for all devices but ZN",
                "“range” - contains a list of addresses to assign to each device.",
                "Should have 1 value in the list for every serial number associated with the device.",
                "So if there are three Moisture Sensor (‘MS’)  serial numbers,",
                "The “range” attribute would contain a list of three integers,in the order you want them.",
                "i.e: “range”: [1, 2, 3]"
              ],


  "32": {
    "_comment": [
      "Single Valve Decoder (D1): A single valve decoder that will populate the zones. One serial number will add one",
      "address to the configuration.",

      "Dual Valve Decoder (D2): A dual valve decoder that will populate the zones. One serial number will add two",
      "addresses to the configuration. ex: TSE0011 adds TSE0011 and TSE0012.",

      "Quad Valve Decoder (D4): A quad valve decoder that will populate the zones. One serial number will add four",
      "addresses to the configuration. ex: TSQ0011 adds TSQ0011, TSQ0012, TSQ0013, and TSQ0014.",

      "Twelve Valve Decoder (DD): A twelve valve decoder that will populate the zones. One serial number will add",
      "twelve addresses to the configuration.",

      "Single Valve Master Valve (MV_D1): A single valve decoder master valve.",

      "Dual Valve Master Valve (MV_D2): A dual valve decoder master valve.",

      "Zones (ZN): The list for ‘ZN’ range contains a start and stopping point for a range of values to allow for gaps.",
      "range example: [1, 10] - Says  address zones from 1 to 10 ",
      "range example: [1, 5, 10, 15] - Says to address zones 1-5 and 10-15",
      "   Range: [1, 200]",

      "Master Valve (MV): Any serial numbers in here must also be either in MV_D1 or MV_D2.",
      "   Range: [1, 2, 3, 4, 5, 6, 7, 8]",

      "Moisture Sensor (MS): Measures the moisture in the soil.",
      "   Range: [1, 2, 3, 4, 5, 6, 7, 8, 9, 10...25]",

      "Temperature Sensor (TS): Reads the temperature in degrees fahrenheit.",
      "   Range: [1, 2, 3, 4, 5, 6, 7, 8]",

      "Event Switch (SW): Allows for conditional operations when it is turned on or off.",
      "   Range: [1, 2, 3, 4, 5, 6, 7, 8]",

      "Flow Meter (FM): Measures the flow going into the flow meter in gallons per minute.",
      "   Range: [1, 2, 3, 4, 5, 6, 7, 8]"
    ],
    "D1": [
      "TSD0001",
      "TSD0002"
    ],
    "MV_D1": [
      "TMV0001"
    ],
    "D2": [
        "TSE0011"
    ],
    "MV_D2": [
    ],
    "D4": [
      "TSQ0071"
    ],
    "DD": [
    ],

    "ZN": {
    "_comment":[
        "The list for ‘ZN’ range contains a start and stopping point for a range of values to allow for gaps ",
        "range example: [1, 10] - Says  address zones from 1 to 10 ",
        "range example: [1, 5, 10, 15] - Says to address zones 1-5 and 10-15"
        ],
      "range": [1, 2, 49, 50, 197, 200]
    },
    "MV": {
      "serial": ["TMV0001"
      ],
      "range": [1]
    },
    "MS": {
      "serial": ["SB00001"
      ],
      "range": [1]
    },
    "TS": {
      "serial": ["TS00001"
      ],
      "range": [1]
    },
    "SW": {
        "serial": ["SW00001"
        ],
      "range": [1]
    },
    "FM": {
        "serial": ["FM00001"
        ],
      "range": [1]
    }
  },

  "Daily_ETO_and_rain_fall_values":[
    {"eto":0.00,"rain_fall": 0},
    {"eto":0.0481485, "rain_fall":0.098425},
    {"eto":0.0382179, "rain_fall":0},
    {"eto":0.00930509, "rain_fall":0},
    {"eto":0.0139129, "rain_fall":0},
    {"eto":0.0789182,"rain_fall":0},
    {"eto":0.0787714, "rain_fall":0},
    {"eto":0.00575393, "rain_fall":0.338582},
    {"eto":0.0182287, "rain_fall":0.011811},
    {"eto":0.0079818, "rain_fall":0},
    {"eto":0.0000000, "rain_fall":0},
    {"eto":0.0459553, "rain_fall":4.00368},
    {"eto":0.0903339, "rain_fall":0},
    {"eto":0.0799349, "rain_fall":0},
    {"eto":0.0481485, "rain_fall":0.098425},
    {"eto":0.0204467, "rain_fall":2.059055},
    {"eto":0.0794578, "rain_fall":0},
    {"eto":0.00472358, "rain_fall":0.090551},
    {"eto":0.358731, "rain_fall":0.011811},
    {"eto":0.00838687, "rain_fall":0},
    {"eto":0.8072972, "rain_fall":0},
    {"eto":0.00177316, "rain_fall":0},
    {"eto":0.00386592, "rain_fall":0.7598420},
    {"eto":1.6411809, "rain_fall":0},
    {"eto":0.00596354, "rain_fall":0},
    {"eto":0.177316, "rain_fall":0},
    {"eto":0.386592, "rain_fall":0.2598420},
    {"eto":0.00177316, "rain_fall":0},
    {"eto":0.00386592,"rain_fall":0.2598420},
    {"eto":0.0903339, "rain_fall":0},
    {"eto":0.00,"rain_fall": 0},
    {"eto":0.0481485, "rain_fall":0.098425},
    {"eto":0.0382179, "rain_fall":0},
    {"eto":0.00930509, "rain_fall":0},
    {"eto":0.0139129, "rain_fall":0},
    {"eto":0.0789182,"rain_fall":0},
    {"eto":0.0787714, "rain_fall":0},
    {"eto":0.00575393, "rain_fall":0.338582},
    {"eto":0.0182287, "rain_fall":0.011811},
    {"eto":0.0079818, "rain_fall":0},
    {"eto":0.0000000, "rain_fall":0},
    {"eto":0.0459553, "rain_fall":4.00368},
    {"eto":0.0903339, "rain_fall":0},
    {"eto":0.0799349, "rain_fall":0},
    {"eto":0.0481485, "rain_fall":0.098425},
    {"eto":0.0204467, "rain_fall":2.059055},
    {"eto":0.0794578, "rain_fall":0},
    {"eto":0.00472358, "rain_fall":0.090551},
    {"eto":0.358731, "rain_fall":0.011811},
    {"eto":0.00838687, "rain_fall":0},
    {"eto":0.572972, "rain_fall":0},
    {"eto":0.00177316, "rain_fall":0},
    {"eto":0.00386592, "rain_fall":0.7598420},
    {"eto":0.6411809, "rain_fall":0},
    {"eto":0.00596354, "rain_fall":0},
    {"eto":0.177316, "rain_fall":0},
    {"eto":0.386592, "rain_fall":0.2598420},
    {"eto":0.00177316, "rain_fall":0},
    {"eto":0.00386592,"rain_fall":0.2598420},
    {"eto":0.0903339, "rain_fall":0},
    {"eto":0.00,"rain_fall": 0},
    {"eto":0.0481485, "rain_fall":0.098425},
    {"eto":0.0382179, "rain_fall":0},
    {"eto":0.00930509, "rain_fall":0},
    {"eto":0.0139129, "rain_fall":0},
    {"eto":0.0789182,"rain_fall":0},
    {"eto":0.0787714, "rain_fall":0},
    {"eto":0.00575393, "rain_fall":0.338582},
    {"eto":0.0182287, "rain_fall":0.011811},
    {"eto":0.0079818, "rain_fall":0},
    {"eto":0.0000000, "rain_fall":0},
    {"eto":0.0459553, "rain_fall":4.00368},
    {"eto":0.0903339, "rain_fall":0},
    {"eto":0.0799349, "rain_fall":0},
    {"eto":0.0481485, "rain_fall":0.098425},
    {"eto":0.0204467, "rain_fall":2.059055},
    {"eto":0.0794578, "rain_fall":0},
    {"eto":0.00472358, "rain_fall":0.090551},
    {"eto":0.358731, "rain_fall":0.011811},
    {"eto":0.00838687, "rain_fall":0},
    {"eto":0.872972, "rain_fall":0},
    {"eto":0.00177316, "rain_fall":0},
    {"eto":0.00386592, "rain_fall":0.7598420},
    {"eto":0.6411809, "rain_fall":0},
    {"eto":0.00596354, "rain_fall":0},
    {"eto":0.177316, "rain_fall":0},
    {"eto":0.386592, "rain_fall":0.2598420},
    {"eto":0.00177316, "rain_fall":0},
    {"eto":0.00386592,"rain_fall":0.2598420},
    {"eto":0.0903339, "rain_fall":0}
    ]
}
