{
  "10": {
    "_comment": [
      "Single Valve Decoder (D1): A single valve decoder that will populate the zones. One serial number will add one",
      "address to the configuration.",
      "Dual Valve Decoder (D2): A dual valve decoder that will populate the zones. One serial number will add two",
      "addresses to the configuration. ex: TSE0011 adds TSE0011 and TSE0012.",
      "Quad Valve Decoder (D4): A quad valve decoder that will populate the zones. One serial number will add four",
      "addresses to the configuration. ex: TSQ0011 adds TSQ0011, TSQ0012, TSQ0013, and TSQ0014.",
      "Twelve Valve Decoder (DD): A twelve valve decoder that will populate the zones. One serial number will add",
      "twelve addresses to the configuration.",
      "Single Valve Master Valve (MV_D1): A single valve decoder master valve.",
      "Dual Valve Master Valve (MV_D2): A dual valve decoder master valve.",
      "Zones (ZN): The list for ‘ZN’ range contains a start and stopping point for a range of values to allow for gaps.",
      "range example: [1, 10] - Says  address zones from 1 to 10 ",
      "range example: [1, 5, 10, 15] - Says to address zones 1-5 and 10-15",
      "   Range: [1, 100]",
      "Master Valve (MV): Any serial numbers in here must also be either in MV_D1 or MV_D2.",
      "   Range: [1, 2, 3, 4, 5, 6, 7, 8]",
      "Moisture Sensor (MS): Measures the moisture in the soil.",
      "   Range: [1, 2, 3, 4, 5, 6, 7, 8, 9, 10...40]",
      "Temperature Sensor (TS): Reads the temperature in degrees fahrenheit.",
      "   Range: [1, 2, 3, 4, 5, 6, 7, 8, 9, 10]",
      "Event Switch (SW): Allows for conditional operations when it is turned on or off.",
      "   Range: [1, 2, 3, 4, 5, 6, 7, 8, 9, 10]",
      "Flow Meter (FM): Measures the flow going into the flow meter in gallons per minute.",
      "   Range: [1, 2, 3, 4, 5, 6, 7, 8]"
    ],
    "D1": [],
    "MV_D1": [],
    "D2": [],
    "MV_D2": [],
    "D4": [],
    "DD": [
      "TVA3301"
    ],
    "ZN": {
      "_comment": [
        "The list for ‘ZN’ range contains a start and stopping point for a range of values to allow for gaps ",
        "range example: [1, 10] - Says  address zones from 1 to 10 ",
        "range example: [1, 5, 10, 15] - Says to address zones 1-5 and 10-15"
      ],
      "range": [
        1,
        5
      ]
    },
    "MV": {
      "serial": [
        "TMV0000"
      ],
      "range": []
    },
    "MS": {
      "serial": [
        "SB00000"
      ],
      "range": []
    },
    "TS": {
      "serial": [
        "TAT0000"
      ],
      "range": []
    },
    "SW": {
      "serial": [
        "TPD0000"
      ],
      "range": []
    },
    "FM": {
      "serial": [
        "TWF0000"
      ],
      "range": []
    }
  },
  "32": {
    "_comment": [
      "Single Valve Decoder (D1): A single valve decoder that will populate the zones. One serial number will add one",
      "address to the configuration.",
      "---------------------------------------------------------------------------------------------------------------",
      "Dual Valve Decoder (D2): A dual valve decoder that will populate the zones. One serial number will add two",
      "addresses to the configuration. ex: TSE0011 adds TSE0011 and TSE0012.",
      "---------------------------------------------------------------------------------------------------------------",
      "Quad Valve Decoder (D4): A quad valve decoder that will populate the zones. One serial number will add four",
      "addresses to the configuration. ex: TSQ0011 adds TSQ0011, TSQ0012, TSQ0013, and TSQ0014.",
      "---------------------------------------------------------------------------------------------------------------",
      "Twelve Valve Decoder (DD): A twelve valve decoder that will populate the zones. One serial number will add",
      "twelve addresses to the configuration.",
      "---------------------------------------------------------------------------------------------------------------",
      "Single Valve Master Valve (MV_D1): A single valve decoder master valve.",
      "---------------------------------------------------------------------------------------------------------------",
      "Dual Valve Master Valve (MV_D2): A dual valve decoder master valve.",
      "---------------------------------------------------------------------------------------------------------------",
      "Zones (ZN): The list for ‘ZN’ range contains a start and stopping point for a range of values to allow for gaps.",
      "---------------------------------------------------------------------------------------------------------------",
      "range example: [1, 10] - Says  address zones from 1 to 10 ",
      "range example: [1, 5, 10, 15] - Says to address zones 1-5 and 10-15",
      "   Range: [1, 200]",
      "---------------------------------------------------------------------------------------------------------------",
      "Master Valve (MV): Any serial numbers in here must also be either in MV_D1 or MV_D2.",
      "   Range: [1, 2, 3, 4, 5, 6, 7, 8]",
      "---------------------------------------------------------------------------------------------------------------",
      "Moisture Sensor (MS): Measures the moisture in the soil.",
      "   Range: [1, 2, 3, 4, 5, 6, 7, 8, 9, 10...25]",
      "---------------------------------------------------------------------------------------------------------------",
      "Temperature Sensor (TS): Reads the temperature in degrees fahrenheit.",
      "   Range: [1, 2, 3, 4, 5, 6, 7, 8]",
      "---------------------------------------------------------------------------------------------------------------",
      "Event Switch (SW): Allows for conditional operations when it is turned on or off.",
      "   Range: [1, 2, 3, 4, 5, 6, 7, 8]",
      "---------------------------------------------------------------------------------------------------------------",
      "Flow Meter (FM): Measures the flow going into the flow meter in gallons per minute.",
      "   Range: [1, 2, 3, 4, 5, 6, 7, 8]",
      "---------------------------------------------------------------------------------------------------------------",
      "",
      "SHARED SERIAL NUMBERS WITH SUBSTATIONS:",
      "",
      "-- IMPORTANT NOTE 1 --",
      "   Serial numbers specified in the JSON slots denoted below WILL NOT be loaded onto the 3200, BUT respective",
      "   device objects WILL be created.",
      "",
      "-- IMPORTANT NOTE 2 --",
      "   Controller devices will be created/addressed first, then shared controller devices must be created via a",
      "   method in configuration.py: `share_sb_device_with_cn`.",
      "---------------------------------------",
      "SB_D1 - Shared Single valve decoder serial numbers",
      "SB_D2 - Shared Dual valve decoder serial numbers",
      "SB_D4 - Shared Quad valve decoder serial numbers",
      "SB_DD - Shared Twelve valve decoder serial numbers",
      "SB_MS - Shared Moisture decoder serial numbers",
      "SB_TS - Shared Temperature decoder serial numbers",
      "SB_FM - Shared Flow decoder serial numbers",
      "SB_SW - Shared Switch decoder serial numbers",
      "---------------------------------------------------------------------------------------------------------------"
    ],
    "D1": [
      "TSD0001",
      "TSD0002",
      "TSD0003"
    ],
    "MV_D1": [],
    "D2": [],
    "MV_D2": [],
    "D4": [],
    "DD": [],
    "ZN": {
      "_comment": [
        "The list for ‘ZN’ range contains a start and stopping point for a range of values to allow for gaps ",
        "range example: [1, 10] - Says  address zones from 1 to 10 ",
        "range example: [1, 5, 10, 15] - Says to address zones 1-5 and 10-15"
      ],
      "range": [1, 3]
    },
    "MV": {
      "serial": [],
      "range": []
    },
    "MS": {
      "serial": [],
      "range": []
    },
    "TS": {
      "serial": [],
      "range": []
    },
    "SW": {
      "serial": [],
      "range": []
    },
    "FM": {
      "serial": [],
      "range": []
    },
    "_comment1": [
      "SHARED DEVICE SECTION:"
    ],
    "SB_D1": [
      "TSD0004",
      "TSD0005",
      "TSD0006"
    ],
    "SB_MV_D1": [],
    "SB_D2": [],
    "SB_MV_D2": [],
    "SB_D4": [],
    "SB_DD": [],
    "SB_MS": [],
    "SB_TS": [],
    "SB_FM": [],
    "SB_SW": []
  },
  "_comment": [
    "Specify up to 8 substations worth of serial numbers to create.",
    "--------------------------------------------------------------",
    "valve_bicoders     - D1, D2, D4, DD",
    "flow_bicoders      - FB",
    "switch_bicoders    - SB",
    "temp_bicoders      - TB",
    "moisture_bicoders  - MB",
    "pump_bicoders      - PB"
  ],
  "SB": [
    {
      "_comment": [
        "Substation Address: 1"
      ],
      "D1": [
        "TSD0004",
        "TSD0005",
        "TSD0006"
      ],
      "D2": [],
      "D4": [],
      "DD": [],
      "FB": [],
      "SB": [],
      "TB": [],
      "MB": [],
      "PB": []
    }
  ]
}
