{
  "_comment": [
    " Controller Number: if the test is using multipler controller than the controller number can be set to pass",
    " pass the correct information from the Json",
    " Controller Type: 10|32|FS|SB|",
    "10 = BaseStation 1000",
    "32 = BaseStation 3200",
    "FS = FlowStation",
    "SB = SubStation",

    "pass in list of controllers or one list for each controller in the list load it device based on the index",
    "number",

    "Single Valve Decoder (D1): A single valve decoder that will populate the zones. One serial number will add one",
    "address to the configuration.",

    "Dual Valve Decoder (D2): A dual valve decoder that will populate the zones. One serial number will add two",
    "addresses to the configuration. ex: TSE0011 adds TSE0011 and TSE0012.",

    "Quad Valve Decoder (D4): A quad valve decoder that will populate the zones. One serial number will add four",
    "addresses to the configuration. ex: TSQ0011 adds TSQ0011, TSQ0012, TSQ0013, and TSQ0014.",

    "Twelve Valve Decoder (DD): A twelve valve decoder that will populate the zones. One serial number will add",
    "twelve addresses to the configuration.",

    "Single Valve Master Valve (MV_D1): A single valve decoder master valve.",

    "Dual Valve Master Valve (MV_D2): A dual valve decoder master valve.",

    "Zones (ZN): The list for ‘ZN’ range contains a start and stopping point for a range of values to allow for gaps.",
    "range example: [1, 10] - Says  address zones from 1 to 10 ",
    "range example: [1, 5, 10, 15] - Says to address zones 1-5 and 10-15",
    "   Range: [1, 200]",

    "Master Valve (MV): Any serial numbers in here must also be either in MV_D1 or MV_D2.",
    "   Range: [1, 2, 3, 4, 5, 6, 7, 8]",

    "Moisture Sensor (MS): Measures the moisture in the soil.",
    "   Range: [1, 2, 3, 4, 5, 6, 7, 8, 9, 10...25]",

    "Temperature Sensor (TS): Reads the temperature in degrees fahrenheit.",
    "   Range: [1, 2, 3, 4, 5, 6, 7, 8]",

    "Event Switch (SW): Allows for conditional operations when it is turned on or off.",
    "   Range: [1, 2, 3, 4, 5, 6, 7, 8]",

    "Flow Meter (FM): Measures the flow going into the flow meter in gallons per minute.",
    "   Range: [1, 2, 3, 4, 5, 6, 7, 8]",

    "Pressure Sensor (FM): Measures the flow going into the flow meter in gallons per minute.",
    "   Range: [1, 2, 3, 4, 5, 6, 7, 8]"
  ],
  "32" : [
    {
      "D1": [
        "VA00001",
        "VA00002",
        "Q150911",
        "VA00104",
        "VB00008",
        "VA00109",
        "VB00010",
        "VB00104",
        "VB00103",
        "VB00105",
        "VB00107",
        "VB00009",
        "VA00003",
        "VA00008",
        "VA00102",
        "VA00009",
        "VA00111",
        "VB00003",
        "VA00108",
        "VB00006",
        "VA00105",
        "VA00103",
        "VB75411",
        "VB75410",
        "Q151633",
        "Q151634",
        "Q150891",
        "Q151631",
        "D075037",
        "Q151632",
        "Q150892",
        "Q150893",
        "Q150894",
        "VA75405",
        "VA75408",
        "VA75402",
        "VA75403",
        "VA75404",
        "VA75410",
        "VA75401",
        "VA75406",
        "VA75411",
        "VA75422",
        "VB75412",
        "VB75409",
        "VB75401",
        "VB75406",
        "VB75408",
        "VA75407",
        "VB75402",
        "VB75405",
        "VB75403",
        "VB00005",
        "VB00002",
        "VB00101",
        "VB00102",
        "VB00012",
        "VB00011",
        "VA00112",
        "VA75421",
        "VA75423",
        "VB75404",
        "D041034",
        "D041077",
        "D041086",
        "E156951",
        "D053346",
        "D041084",
        "E156952",
        "E157061",
        "E157062",
        "E157461",
        "E157462",
        "Q150912",
        "Q150913",
        "E265651",
        "Q143353",
        "E157891",
        "Q143352",
        "Q143351",
        "Q143901",
        "E265622",
        "Q143902",
        "E265621",
        "E265652",
        "Q143903",
        "E157892",
        "VA81221",
        "VA81222",
        "VA81223",
        "VA81224",
        "VA81225",
        "VA81226",
        "VA81227",
        "VA81228",
        "VA81229",
        "VA81230",
        "VA81231",
        "VA81232",
        "VB81221",
        "VB81222",
        "VB81223",
        "VB81224",
        "VB81225",
        "VB81226",
        "VB81227",
        "VB81228",
        "VB81229",
        "VB81230",
        "VB81231"
      ],
      "MV_D1": [
        "D041075","D053779","D053981","D053982","D056801"
      ],
      "PM_D1": [
      ],
      "D2": [
      ],
      "MV_D2": [
      ],
      "D4": [
      ],
      "DD": [
     ],
      "ZN": {
        "_comment": [
          "The list for ‘ZN’ range contains a start and stopping point for a range of values to allow for gaps ",
          "range example: [1, 10] - Says  address zones from 1 to 10 ",
          "range example: [1, 5, 10, 15] - Says to address zones 1-5 and 10-15"
        ],
        "range": [1,11,13,25,29,39,44,50,54,63,68,77,80,84,86,87,94,97,102,103,131,141,157,157,161,183]
      },
      "MV": {
        "serial": [
          "D041075","D053779","D053981","D053982","D056801"
        ],
        "range": [1,2,3,4,5]
      },
      "MS": {
        "serial": ["SB09158","SB09170","SB12266","SB12271","SB12306","SB15677","SB15754","SB15761","ST00339","ST00348"
        ],
        "range": [1,2,3,4,5,6,7,8,9,10]
      },
      "TS": {
        "serial": [
        ],
        "range": []
      },
      "SW": {
        "serial": [
        ],
        "range": []
      },
      "PM": {
        "serial": [
        ],
        "range": []
      },
      "FM": {
        "serial": [
          "WF01482","WF01566","WF01573","WF01574","WF01642"
        ],
        "range": [1,2,3,4,5]
      }
    },
    {
      "D1": [
        "VAA0821",
        "VAA0822",
        "VAA0823",
        "VAA0824",
        "VAA0825",
        "VAA0826",
        "VAA0827",
        "VAA0828",
        "VAA0829",
        "VAA0830",
        "VAA0831",
        "VAA0832",
        "VBA0821",
        "VBA0825",
        "VBA0822",
        "VBA0823",
        "VBA0824",
        "VA00001",
        "VA00005",
        "VA00003",
        "VA00004",
        "VA00002",
        "VA00006",
        "VA00007",
        "VA79911",
        "VB00007",
        "VA79912",
        "VA00011",
        "VB00009",
        "VA00012",
        "VB00004",
        "VB00003",
        "VB00002",
        "VA79901",
        "VA79906",
        "VA79903",
        "VA79902",
        "VA79907",
        "VA79904",
        "VA79910",
        "VB00005",
        "VB00006",
        "VA79908",
        "VB00001",
        "VB00008",
        "VB00010",
        "VB00011",
        "VB00012",
        "VA00010",
        "VA00008",
        "VA75101",
        "VA75102",
        "VA75103",
        "VA75104",
        "VA75105",
        "VA75106",
        "VA75107",
        "VA75108",
        "VA75109",
        "VA75110",
        "VA75111",
        "VA75112",
        "VB75101",
        "VB75102",
        "VA76009",
        "VA76002",
        "VA76003",
        "VA76004",
        "VA76005",
        "VA76006",
        "VA76007",
        "VA76008",
        "VA75301",
        "VA75302",
        "VA75303",
        "VA75304",
        "VA75305",
        "VA75306",
        "VA75307",
        "VA75308",
        "VA75309",
        "VA75310",
        "Q135092",
        "VA75312",
        "VB75302",
        "VB75303",
        "VB75304",
        "VB75305",
        "VB75307",
        "VB75308",
        "VB75309",
        "VB75310",
        "Q135093",
        "VB75312",
        "VA75321",
        "VA75322",
        "VA75323",
        "VB75301",
        "D055447",
        "Q135091",
        "VA79909",
        "VA79905",
        "VA76001",
        "VA76010",
        "VA76011",
        "VA76012",
        "D056800",
        "E204141",
        "E204142"
      ],
      "MV_D1": [
        "D056820","D056802","D052385","D053980"
      ],
      "PM_D1": [
      ],
      "D2": [
      ],
      "MV_D2": [
      ],
      "D4": [
      ],
      "DD": [
      ],
      "ZN": {
        "_comment": [
          "The list for ‘ZN’ range contains a start and stopping point for a range of values to allow for gaps ",
          "range example: [1, 10] - Says  address zones from 1 to 10 ",
          "range example: [1, 5, 10, 15] - Says to address zones 1-5 and 10-15"
        ],
        "range": [1,64,66,73,75,86,89,92,94,99,101,104,106,107,114,114,119,119,122,125,137,139]
      },
      "MV": {
        "serial": [
          "D056820","D056802","D052385","D053980"
        ],
        "range": [1,2,3,4]
      },
      "PM": {
        "serial": [
        ],
        "range": []
      },
      "MS": {
        "serial": ["SB09132","SB09564","SB15606","SB15757","SB15758","SB15759","SB15765","ST00350","ST00351","ST00352"
        ],
        "range": [1,2,3,4,5,6,8,9,10,11]
      },
      "TS": {
        "serial": [
        ],
        "range": []
      },
      "SW": {
        "serial": [
        ],
        "range": []
      },
      "PS": {
        "serial": [
        ],
        "range": [  ]
      },
      "FM": {
        "serial": [
          "WF01531","WF01575","WF01643","WF01661"
        ],
        "range": [1,2,3,4]
      }
    }
  ]
}
