{
    "_comment": [
        "user_name",
        "password",
        "url",
        "browserview",
        "webdriver.",
        "sitename",
        "comapanyname",
        "logging",
        "controllers:",
        " a None can be place in any field",
        "for multiple controller add more controllers",
        "type: Example: BaseStation1000,BaseStation3200,FlowStation,SubStation",
        "mac_address: Example: 0004A3765147",
        "port_address: socket:10002",
        "socket_port:  Example: //10.11.12.241:10001",
        "ip_address:  Example: 10.11.12.56",
        "firmware_version:  Example: 1.19",
        "borwsers",
        "windows",
        "mac",
        "links"
    ],
    "logging": "on",

    "client_login_info":
        {
            "username": "",
            "password": "",
            "site_name": "",
            "company": ""
        }
    ,
    "server_connections":
        {
          "server_url": "http://p2.basemanager.net/login.php?debug=true",
          "fixed_ip_address": "",
          "port_number": "",
          "browser_view": "",
          "web_driver": ""
        }
    ,
    "controllers": [
        {
            "type": "32",
            "serial_number": "3K10001",
            "firmware_version": "",
            "mac_address": "0008EE403A02",
            "port_address": "1",
            "ethernet_to_serial_connection": "socket://10.11.12.241:10002",
            "local_ip_address": "10.11.13.125",
            "fw_database_id": "88"
        },
        {
            "type": "SB",
            "serial_number": "SB10001",
            "firmware_version": "1.0",
            "mac_address": "001ECDE2FCC4",
            "port_address": "None",
            "ethernet_to_serial_connection": "socket://10.11.13.118:21000",
            "local_ip_address": "10.11.13.118"
        }
    ],

    "browsers": ["chrome","firefox"],
    "windows":{
        "chrome": "C:\\Users\\Baseline\\My Documents\\chromedriver.exe",
        "ie": "C:\\Users\\Baseline\\Documents\\IEDriverServer.exe"
    },
    "mac": {
        "chrome": "C:\\Users\\Baseline\\My Documents\\chromedriver.exe",
        "ie": "C:\\Users\\Baseline\\Documents\\IEDriverServer.exe"
    },
    "linux": {
        "chrome": "/usr/bin/google-chrome",
        "ie": "C:\\Users\\Baseline\\Documents\\IEDriverServer.exe"
    }
}
