{
    "username": "Tim",
    "password": "tim",
    "url": "http://10.11.12.29",
    "browser_view": "None",
    "web_driver": "None",
    "site_name": "Tim's Test Controllers",
    "company": "Automated_Test_Systems",

    "logging": "on",

    "client_login_info":
    {
        "username": "Tim",
        "password": "tim",
        "site_name": "Tim's Test Controllers",
        "company": "Automated_Test_Systems"
    },

    "server_connections":
    {
        "server_url": "http://p2.basemanager.net/login.php?debug=true",
        "fixed_ip_address": "http://10.11.12.29",
        "port_number": "443",
        "browser_view": "None",
        "web_driver": "None"
    },

    "controllers": [

        {
            "type": "32",
            "serial_number": "3K10001",
            "firmware_version": "",
            "mac_address": "0008EE403A02",
            "port_address": "1",
            "ethernet_to_serial_connection": "socket://10.11.13.126:10002",
            "local_ip_address": "10.11.12.56",
            "fw_database_id": "88"
        }
    ],

    "browsers": ["chrome", "firefox"],
    "windows":{
        "chrome": "C:\\Users\\Tim\\Documents\\chromedriver.exe",
        "ie": "C:\\Users\\Tim\\Documents\\IEDriverServer.exe"
    },
    "mac": {
        "chrome": "C:\\Users\\Tim\\Documents\\chromedriver.exe",
        "ie": "C:\\Users\\Tim\\Documents\\IEDriverServer.exe"
    },
    "linux": {
        "chrome": "/usr/bin/google-chrome",
        "ie": "C:\\Users\\Baseline\\Documents\\IEDriverServer.exe"
    }
}
