{
  "_comment": [
    "user_name",
    "password",
    "url",
    "browserview",
    "webdriver.",
    "sitename",
    "comapanyname",
    "logging",
    "controllers:",
    " a None can be place in any field",
    "for multiple controller add more controllers",
    "type: Example: BaseStation1000,BaseStation3200,FlowStation,SubStation",
    "mac_address: Example: 0004A3765147",
    "port_address: socket:10002",
    "socket_port:  Example: //10.11.12.241:10001",
    "ip_address:  Example: 10.11.12.56",
    "firmware_version:  Example: 1.19",
    "borwsers",
    "windows",
    "mac",
    "links",
    {
      "type": "SB",
      "serial_number": "SB10001",
      "firmware_version": "1.0.19",
      "mac_address": "D880391CF285",
      "port_address": "None",
      "ethernet_to_serial_connection": "socket://10.11.12.246:10001",
      "local_ip_address": "10.11.12.44"
    }
  ],
  "logging": "on",

  "client_login_info":
  {
    "username": "username",
    "password": "password",
    "site_name": "Ben's Test Controllers",
    "company": "Automated_Test_Systems"
  }
,
  "server_connections":
  {
    "server_url": "http://p2.basemanager.net/login.php?debug=true",
    "use_alternate_ip_address": "",
    "alternate_ip_address": "",
    "fixed_ip_address": "",
    "port_number": "443",
    "browser_view": "None",
    "web_driver": "None"
  }
,
  "controllers": [
    {
      "type": "10",
      "serial_number": "3K10001",
      "firmware_version": "",
      "mac_address": "D880391CF285",
      "port_address": "None",
      "ethernet_to_serial_connection": "socket://10.11.12.243:10001",
      "local_ip_address": "10.11.12.104",
      "fw_database_id": "88"
    }
  ],

  "browsers": ["chrome","firefox"],
  "windows":{
    "chrome": "C:\\Users\\Baseline\\AppData\\Local\\Google\\Chrome\\chromedriver.exe",
    "ie": "C:\\Users\\Baseline\\Documents\\IEDriverServer.exe"
  },
  "mac": {
    "chrome": "C:\\Users\\Baseline\\My Documents\\chromedriver.exe",
    "ie": "C:\\Users\\Baseline\\Documents\\IEDriverServer.exe"
  },
  "linux": {
    "chrome": "/usr/bin/google-chrome",
    "ie": "C:\\Users\\Baseline\\Documents\\IEDriverServer.exe"
  }
}