{
    "username": "EldinAutoTests",
    "password": "EldinTest@10259",
    "url": "https://p2.basemanager.net/login.php",
    "browser_view": "None",
    "web_driver": "None",
    "site_name": "EldinAutoTests",
    "company": "Automated_Test_Systems",

    "logging": "on",

    "controller_1000": {
        "mac_address": "0004A3B28BE6",
        "port_address": "None",
        "socket_port": "socket://10.11.12.229:10001"
    },
    "controller_3200": {
        "mac_address": "000CC6807459",
        "port_address": "None",
        "socket_port": "socket://10.11.12.240:10002"
    },

    "substations": [
        {
            "mac_address": "D880391CF285",
            "port_address": "None",
            "socket_port": "socket://10.11.12.246:10001",
            "ip_address": "10.11.12.44"
        }
    ],

    "browsers": ["chrome", "firefox"],
    "windows":{
        "chrome": "C:\\Users\\BaselineSystemsInc\\AppData\\local\\Google\\Chrome\\chromedriver.exe",
        "ie": "C:\\Users\\Baseline\\Documents\\IEDriverServer.exe"
    },
    "mac": {
        "chrome": "C:\\Users\\Baseline\\My Documents\\chromedriver.exe",
        "ie": "C:\\Users\\Baseline\\Documents\\IEDriverServer.exe"
    },
    "linux": {
        "chrome": "/usr/bin/google-chrome",
        "ie": "C:\\Users\\Baseline\\Documents\\IEDriverServer.exe"
    }
}
