{
    "BL": {

        "1V": {
            "Base": {
                "CurrentMax": 0.01,
                "Type": "1.11",
                "Version": "5.4",
                "VoltageMin": 0
            },

            "BitSkewMax": 6,

            "BitTime": {
                "BaseLong": 132,
                "BaseShort": 72,
                "RemoteLong": 110,
                "RemoteShort": 60
            },

            "Current": {
                "Max": 0.01,
                "Min": 1
            },

            "TwoWireDrop": {
                "Min": 1,
                "Max": 10
            },

            "Voltage": {
                "Min": 1,
                "Max": 255
            },

            "Version": {
                "Min": 2,
                "Maj": 5
            }
        },

        "2V": {
            "Base": {
                "CurrentMax": 215,
                "Type": "1.11",
                "Version": "5.4",
                "VoltageMin": 165
            },

            "BitSkewMax": 6,

            "BitTime": {
                "BaseLong": 132,
                "BaseShort": 72,
                "RemoteLong": 108,
                "RemoteShort": 60
            },

            "Current": {
                "Max": 160,
                "Min": 200
            },

            "TwoWireDrop": {
                "Min": 36,
                "Max": 48
            },

            "Voltage": {
                "Min": 200,
                "Max": 255
            },

            "Version": {
                "Min": 2,
                "Maj": 5
            }
        },

        "4V": {
            "Base": {
                "CurrentMax": 215,
                "Type": "1.11",
                "Version": "5.4",
                "VoltageMin": 165
            },

            "BitSkewMax": 6,

            "BitTime": {
                "BaseLong": 132,
                "BaseShort": 72,
                "RemoteLong": 108,
                "RemoteShort": 60
            },

            "Current": {
                "Max": 180,
                "Min": 220
            },

            "TwoWireDrop": {
                "Min": 36,
                "Max": 48
            },

            "Voltage": {
                "Min": 200,
                "Max": 255
            },

            "Version": {
                "Min": 2,
                "Maj": 5
            }
        },

        "12V": {
            "Base": {
                "CurrentMax": 215,
                "Type": "1.11",
                "Version": "5.4",
                "VoltageMin": 165
            },

            "BitSkewMax": 6,

            "BitTime": {
                "BaseLong": 132,
                "BaseShort": 72,
                "RemoteLong": 108,
                "RemoteShort": 60
            },

            "Current": {
                "Max": 205,
                "Min": 220
            },

            "TwoWireDrop": {
                "Min": 36,
                "Max": 48
            },

            "Voltage": {
                "Max": 214,
                "Min": 194
            },

            "Version": {
                "Min": 2,
                "Maj": 5
            }
        }
    }
}