{
    "_comment": [
        "user_name",
        "password",
        "url",
        "browserview",
        "webdriver.",
        "sitename",
        "comapanyname",
        "logging",
        "controllers:",
        " a None can be place in any field",
        "for multiple controller add more controllers",
        "type: Example: BaseStation1000,BaseStation3200,FlowStation,SubStation",
        "mac_address: Example: 0004A3765147",
        "port_address: socket:10002",
        "socket_port:  Example: //10.11.12.241:10001",
        "ip_address:  Example: 10.11.12.56",
        "firmware_version:  Example: 1.19",
        "borwsers",
        "windows",
        "mac",
        "links"
    ],
    "logging": "on",

    "client_login_info":
    {
        "username": "ChrisAutoTests",
        "password": "ChrisTest@10259",
        "site_name": "Joe's Test Controllers",
        "company": "Automated_Test_Systems"
    },
    "server_connections":
    {
        "server_url": "http://p2.basemanager.net/login.php?debug=true",
        "use_alternate_ip_address": "TR",
        "alternate_ip_address": "104.130.246.18",
        "fixed_ip_address": "0.0.0.0",
        "port_number": "443",
        "browser_view": "None",
        "web_driver": "None"
    },

    "controllers": [
        {
            "type": "FS",
            "serial_number": "FX00038",
            "firmware_version": "2.0.102",
            "mac_address": "0004A37B6A7D",
            "port_address": "None",
            "ethernet_to_serial_connection": "socket://10.11.12.112:21000",
            "local_ip_address": "10.11.12.112",
            "fw_database_id": "16"
        }
        ,
        {
            "type": "32",
            "serial_number": "3X10001",
            "firmware_version": "16.1.609",
            "mac_address": "000CC67FA801",
            "port_address": "None",
            "ethernet_to_serial_connection": "socket://10.11.12.227:10002",
            "local_ip_address": "10.11.12.194",
            "fw_database_id": "122"
        }
    ,
        {
            "type": "32",
            "serial_number": "3X10002",
            "firmware_version": "16.1.609",
            "mac_address": "000CC67FA802",
            "port_address": "None",
            "ethernet_to_serial_connection": "socket://10.11.12.248:10001",
            "local_ip_address": "10.11.12.101",
            "fw_database_id": "122"
        }
    ],

    "controller_placeholder": [
        {
            "type": "SB",
            "serial_number": "SB10001",
            "firmware_version": "1.1",
            "mac_address": "0004A37B6A7D",
            "port_address": "4",
            "ethernet_to_serial_connection": "None",
            "local_ip_address": "10.11.12.112"
        }
        ,
        {
            "type": "10",
            "serial_number": "1K10000",
            "firmware_version": "1.21",
            "mac_address": "0004A37B6A7D",
            "port_address": "1",
            "ethernet_to_serial_connection": "None",
            "local_ip_address": "10.11.12.242",
            "fw_database_id": "88"
        }
    ,
        {
            "type": "10",
            "serial_number": "1K10000",
            "firmware_version": "1.21",
            "mac_address": "AABBCCDDEEF1",
            "port_address": "None",
            "ethernet_to_serial_connection": "socket://127.0.0.1:21000",
            "local_ip_address": "127.0.0.1",
            "fw_database_id": "88"
        }
    ,
        {
            "type": "FS",
            "serial_number": "FX00038",
            "firmware_version": "2.0.92",
            "mac_address2": "AABBCCDDEEFF",
            "mac_address": "0004A37B6A7D",
            "port_address": "None",
            "ethernet_to_serial_connection2": "socket://10.11.12.174:21000",
            "ethernet_to_serial_connection": "socket://10.11.12.112:21000",
            "local_ip_address2": "10.11.12.174",
            "local_ip_address": "10.11.12.112",
            "fw_database_id": "16"
        }
    ],

    "browsers": ["chrome", "firefox"],
    "windows":{
        "chrome": "C:\\Program Files (x86)\\Google\\Chrome\\Application\\chromedriver.exe",
        "ie": "C:\\Users\\Baseline\\Documents\\IEDriverServer.exe"
    },
    "mac": {
        "chrome": "C:\\Users\\Baseline\\My Documents\\chromedriver.exe",
        "ie": "C:\\Users\\Baseline\\Documents\\IEDriverServer.exe"
    },
    "linux": {
        "chrome": "/usr/bin/google-chrome",
        "ie": "C:\\Users\\Baseline\\Documents\\IEDriverServer.exe"
    }
}
